com\codecamp\web\HomeServlet.class
com\codecamp\web\LoginServlet.class
com\codecamp\web\Book.class
com\codecamp\web\Employee.class
com\codecamp\web\Application.class
com\codecamp\web\CourseNoTeacher.class
com\codecamp\web\Student.class
com\codecamp\web\NoTeach.class
com\codecamp\web\Person.class
