web\exception\SpringException.class
web\controller\HelloController.class
web\config\WebMvcConfig.class
web\client\UserClient.class
web\controller\EmployeeController.class
web\domain\Student.class
web\domain\Employee.class
web\controller\StudentController.class
web\config\AppInitializer.class
