E:\HW_codecamp\codecamp3\day10_oop2\src\main\java\day10\Homework10_2.java
E:\HW_codecamp\codecamp3\day10_oop2\src\main\java\day10\CEO2.java
E:\HW_codecamp\codecamp3\day10_oop2\src\main\java\day10\Programmer.java
E:\HW_codecamp\codecamp3\day10_oop2\src\main\java\day10\my_interface\ICleaner.java
E:\HW_codecamp\codecamp3\day10_oop2\src\main\java\day10\my_interface\IWebsiteCreator.java
E:\HW_codecamp\codecamp3\day10_oop2\src\main\java\day10\AI.java
E:\HW_codecamp\codecamp3\day10_oop2\src\main\java\day10\Employee.java
E:\HW_codecamp\codecamp3\day10_oop2\src\main\java\day10\Employee2.java
E:\HW_codecamp\codecamp3\day10_oop2\src\main\java\day10\my_interface\ICoachroachKiller.java
E:\HW_codecamp\codecamp3\day10_oop2\src\main\java\day10\CEO.java
E:\HW_codecamp\codecamp3\day10_oop2\src\main\java\day10\Homework10_1.java
E:\HW_codecamp\codecamp3\day10_oop2\src\main\java\day10\my_interface\IWindowsInstaller.java
E:\HW_codecamp\codecamp3\day10_oop2\src\main\java\day10\OfficeCleaner.java
