E:\HW_codecamp\codecamp3\day15_HW1\day15_hw1\src\main\java\com\codecamp\web\HomeServlet.java
E:\HW_codecamp\codecamp3\day15_HW1\day15_hw1\src\main\java\com\codecamp\web\Application.java
E:\HW_codecamp\codecamp3\day15_HW1\day15_hw1\src\main\java\com\codecamp\web\Student.java
E:\HW_codecamp\codecamp3\day15_HW1\day15_hw1\src\main\java\com\codecamp\web\LoginServlet.java
