E:\HW_codecamp\codecamp3\day22_Review_usingXML\web\src\main\java\web\domain\Student.java
E:\HW_codecamp\codecamp3\day22_Review_usingXML\web\src\main\java\web\controller\StudentController.java
E:\HW_codecamp\codecamp3\day22_Review_usingXML\web\src\main\java\web\controller\TestController.java
